{
  "indexes": [
    {
      "collectionGroup": "clip",
      "queryScope": "COLLECTION",
      "fields": [
        {
          "fieldPath": "owner.ref",
          "order": "ASCENDING"
        },
        {
          "fieldPath": "createdAt",
          "order": "DESCENDING"
        }
      ]
    },
    {
      "collectionGroup": "clip",
      "queryScope": "COLLECTION",
      "fields": [
        {
          "fieldPath": "visibility",
          "order": "ASCENDING"
        },
        {
          "fieldPath": "createdAt",
          "order": "DESCENDING"
        }
      ]
    },
    {
      "collectionGroup": "clip",
      "queryScope": "COLLECTION",
      "fields": [
        {
          "fieldPath": "vtubers.refs",
          "arrayConfig": "CONTAINS"
        },
        {
          "fieldPath": "visibility",
          "order": "ASCENDING"
        },
        {
          "fieldPath": "createdAt",
          "order": "DESCENDING"
        }
      ]
    },
    {
      "collectionGroup": "playlist",
      "queryScope": "COLLECTION",
      "fields": [
        {
          "fieldPath": "owner.ref",
          "order": "ASCENDING"
        },
        {
          "fieldPath": "createdAt",
          "order": "DESCENDING"
        }
      ]
    }
  ],
  "fieldOverrides": []
}
